index.utf8
…
---
class:

# filter

Selecionar linhas da base de dados.

OBS: **Tibble** é uma releitura moderna do data.frame.

```r
df_titanic %>% filter(sobreviveu == "sim") # Seleciona os sobreviventes.
```

```
## # A tibble: 342 x 12
##    id_passageiro sobreviveu classe nome  sexo  idade irmaos_conjuge
##            <dbl> <chr>       <dbl> <chr> <chr> <dbl>          <dbl>
##  1             2 sim             1 Cumi~ femi~    38              1
##  2             3 sim             3 Heik~ femi~    26              0
##  3             4 sim             1 Futr~ femi~    35              1
##  4             9 sim             3 John~ femi~    27              0
##  5            10 sim             2 Nass~ femi~    14              1
##  6            11 sim             3 Sand~ femi~     4              1
##  7            12 sim             1 Bonn~ femi~    58              0
##  8            16 sim             2 Hewl~ femi~    55              0
##  9            18 sim             2 Will~ masc~    NA              0
## 10            20 sim             3 Mass~ femi~    NA              0
## # ... with 332 more rows, and 5 more variables: pais_criancas <dbl>,
## #   passagem <chr>, tarifa <dbl>, cabine <chr>, embarque <chr>
```
…
---
class:

# arrange

Ordenar as linhas da base de dados conforme uma ou mais variáveis.

```r
# Ordena por ordem crescente da coluna nome.
passageiros_ordenados <- df_titanic %>% arrange(nome)
passageiros_ordenados
```

```
## # A tibble: 891 x 12
##    id_passageiro sobreviveu classe nome  sexo  idade irmaos_conjuge
##            <dbl> <chr>       <dbl> <chr> <chr> <dbl>          <dbl>
##  1           846 nao             3 Abbi~ masc~    42              0
##  2           747 nao             3 Abbo~ masc~    16              1
##  3           280 sim             3 Abbo~ femi~    35              1
##  4           309 nao             2 Abel~ masc~    30              1
##  5           875 sim             2 Abel~ femi~    28              1
##  6           366 nao             3 Adah~ masc~    30              0
##  7           402 nao             3 Adam~ masc~    26              0
##  8            41 nao             3 Ahli~ femi~    40              1
##  9           856 sim             3 Aks,~ femi~    18              0
## 10           208 sim             3 Albi~ masc~    26              0
## # ... with 881 more rows, and 5 more variables: pais_criancas <dbl>,
## #   passagem <chr>, tarifa <dbl>, cabine <chr>, embarque <chr>
```
---
class:

# arrange 

É possível ordenar na ordem descrescente e também por mais de uma variável.

```r
# Ordena por ordem decrescente de idade e por ordem crescente de nome.
passageiros_ordenados <- df_titanic %>% arrange(desc(idade), nome)
passageiros_ordenados
```

```
## # A tibble: 891 x 12
##    id_passageiro sobreviveu classe nome  sexo  idade irmaos_conjuge
##            <dbl> <chr>       <dbl> <chr> <chr> <dbl>          <dbl>
##  1           631 sim             1 Bark~ masc~  80                0
##  2           852 nao             3 Sven~ masc~  74                0
##  3           494 nao             1 Arta~ masc~  71                0
##  4            97 nao             1 Gold~ masc~  71                0
##  5           117 nao             3 Conn~ masc~  70.5              0
##  6           746 nao             1 Cros~ masc~  70                1
##  7           673 nao             2 Mitc~ masc~  70                0
##  8            34 nao             2 Whea~ masc~  66                0
##  9           281 nao             3 Duan~ masc~  65                0
## 10           457 nao             1 Mill~ masc~  65                0
## # ... with 881 more rows, and 5 more variables: pais_criancas <dbl>,
## #   passagem <chr>, tarifa <dbl>, cabine <chr>, embarque <chr>
```
…
---
class:

# filter & arrange

```r
# Filtra os sobreviventes homens e ordena por classe.
df_titanic  %>% 
  filter(sexo == "masculino" & sobreviveu == "sim") %>% 
  arrange(classe)
```

```
## # A tibble: 109 x 12
##    id_passageiro sobreviveu classe nome  sexo  idade irmaos_conjuge
##            <dbl> <chr>       <dbl> <chr> <chr> <dbl>          <dbl>
##  1            24 sim             1 Slop~ masc~ 28                 0
##  2            56 sim             1 Wool~ masc~ NA                 0
##  3            98 sim             1 Gree~ masc~ 23                 0
##  4           188 sim             1 "Rom~ masc~ 45                 0
##  5           210 sim             1 Blan~ masc~ 40                 0
##  6           225 sim             1 Hoyt~ masc~ 38                 1
##  7           249 sim             1 Beck~ masc~ 37                 1
##  8           299 sim             1 Saal~ masc~ NA                 0
##  9           306 sim             1 Alli~ masc~  0.92              1
## 10           371 sim             1 Hard~ masc~ 25                 1
## # ... with 99 more rows, and 5 more variables: pais_criancas <dbl>,
## #   passagem <chr>, tarifa <dbl>, cabine <chr>, embarque <chr>
```
…
---
class:

# select

Selecionar colunas (variáveis) da base de dados.

```r
# Seleciona as colunas indicadas.
df_titanic %>% select(nome, idade, classe, embarque)
```

```
## # A tibble: 891 x 4
##    nome                                                idade classe embarque   
##    <chr>                                               <dbl>  <dbl> <chr>      
##  1 Braund, Mr. Owen Harris                                22      3 Southampton
##  2 Cumings, Mrs. John Bradley (Florence Briggs Thayer)    38      1 Cherbourg  
##  3 Heikkinen, Miss. Laina                                 26      3 Southampton
##  4 Futrelle, Mrs. Jacques Heath (Lily May Peel)           35      1 Southampton
##  5 Allen, Mr. William Henry                               35      3 Southampton
##  6 Moran, Mr. James                                       NA      3 Queenstow  
##  7 McCarthy, Mr. Timothy J                                54      1 Southampton
##  8 Palsson, Master. Gosta Leonard                          2      3 Southampton
##  9 Johnson, Mrs. Oscar W (Elisabeth Vilhelmina Berg)      27      3 Southampton
## 10 Nasser, Mrs. Nicholas (Adele Achem)                    14      2 Cherbourg  
## # ... with 881 more rows
```
…
---
class:

# select

```r
# Seleciona as colunas que começam com "id".
df_titanic %>%  select(starts_with("id"))
```

```
## # A tibble: 891 x 2
##    id_passageiro idade
##            <dbl> <dbl>
##  1             1    22
##  2             2    38
##  3             3    26
##  4             4    35
##  5             5    35
##  6             6    NA
##  7             7    54
##  8             8     2
##  9             9    27
## 10            10    14
## # ... with 881 more rows
```

---
class:

# select

Ao inserir o caracter **-** na frente da coluna, você estará excluindo as colunas da seleção.

```r
df_titanic %>%  select(-id_passageiro, -nome)
```

```
## # A tibble: 891 x 10
##    sobreviveu classe sexo  idade irmaos_conjuge pais_criancas passagem tarifa
##    <chr>       <dbl> <chr> <dbl>          <dbl>         <dbl> <chr>     <dbl>
##  1 nao             3 masc~    22              1             0 A/5 211~   7.25
##  2 sim             1 femi~    38              1             0 PC 17599  71.3 
##  3 sim             3 femi~    26              0             0 STON/O2~   7.92
##  4 sim             1 femi~    35              1             0 113803    53.1 
##  5 nao             3 masc~    35              0             0 373450     8.05
##  6 nao             3 masc~    NA              0             0 330877     8.46
##  7 nao             1 masc~    54              0             0 17463     51.9 
##  8 nao             3 masc~     2              3             1 349909    21.1 
##  9 sim             3 femi~    27              0             2 347742    11.1 
## 10 sim             2 femi~    14              1             0 237736    30.1 
## # ... with 881 more rows, and 2 more variables: cabine <chr>, embarque <chr>
```
…
---
class:

# mutate

```r
# Cria no dataset uma nova variável chamada tarifa_reais.
tarifa_conversao <- df_titanic %>% mutate(tarifa_real = tarifa * 4.93)
tarifa_conversao
```

```
## # A tibble: 891 x 13
##    id_passageiro sobreviveu classe nome  sexo  idade irmaos_conjuge
##            <dbl> <chr>       <dbl> <chr> <chr> <dbl>          <dbl>
##  1             1 nao             3 Brau~ masc~    22              1
##  2             2 sim             1 Cumi~ femi~    38              1
##  3             3 sim             3 Heik~ femi~    26              0
##  4             4 sim             1 Futr~ femi~    35              1
##  5             5 nao             3 Alle~ masc~    35              0
##  6             6 nao             3 Mora~ masc~    NA              0
##  7             7 nao             1 McCa~ masc~    54              0
##  8             8 nao             3 Pals~ masc~     2              3
##  9             9 sim             3 John~ femi~    27              0
## 10            10 sim             2 Nass~ femi~    14              1
## # ... with 881 more rows, and 6 more variables: pais_criancas <dbl>,
## #   passagem <chr>, tarifa <dbl>, cabine <chr>, embarque <chr>,
## #   tarifa_real <dbl>
```
…
